<?xml version="1.0" encoding="UTF-8" standalone="no"?>
<!-- Generator: Adobe Illustrator 26.0.1, SVG Export Plug-In . SVG Version: 6.00 Build 0)  -->

<svg
   version="1.1"
   id="Ebene_1"
   x="0px"
   y="0px"
   viewBox="0 0 522.69573 699.98488"
   xml:space="preserve"
   sodipodi:docname="pfeil_white.svg"
   width="522.69574"
   height="699.98486"
   inkscape:version="1.2.2 (732a01da63, 2022-12-09, custom)"
   xmlns:inkscape="http://www.inkscape.org/namespaces/inkscape"
   xmlns:sodipodi="http://sodipodi.sourceforge.net/DTD/sodipodi-0.dtd"
   xmlns="http://www.w3.org/2000/svg"
   xmlns:svg="http://www.w3.org/2000/svg"><defs
   id="defs34" /><sodipodi:namedview
   id="namedview32"
   pagecolor="#ffffff"
   bordercolor="#000000"
   borderopacity="0.25"
   inkscape:showpageshadow="2"
   inkscape:pageopacity="0.0"
   inkscape:pagecheckerboard="0"
   inkscape:deskcolor="#d1d1d1"
   showgrid="false"
   inkscape:zoom="1.1956234"
   inkscape:cx="158.91292"
   inkscape:cy="459.59288"
   inkscape:window-width="1850"
   inkscape:window-height="1016"
   inkscape:window-x="0"
   inkscape:window-y="0"
   inkscape:window-maximized="1"
   inkscape:current-layer="Ebene_1" />
<style
   type="text/css"
   id="style25">
	.st0{fill:#FFFFFF;}
</style>
<path
   class="st0"
   d="m 430.4604,-42.49875 h -194.28 l 293.37,339.98 -293.37,339.98 c 64.7484,0.0397 129.53696,0.02 194.3,0.02 97.7104,-113.32004 195.56701,-226.68146 293.35,-340 z"
   id="path293"
   style="fill:none;stroke:#ffffff;stroke-width:20;stroke-linecap:square;stroke-linejoin:miter;stroke-dasharray:none"
   sodipodi:nodetypes="ccccccc"
   inkscape:label="path293"
   inkscape:export-filename="../4cd9363e/arrow_white.svg"
   inkscape:export-xdpi="96"
   inkscape:export-ydpi="96"
   transform="translate(-214.34302,52.49875)" />
</svg>
