<?xml version="1.0" encoding="UTF-8" standalone="no"?>
<!-- Created with Inkscape (http://www.inkscape.org/) -->

<svg
   width="13.052945mm"
   height="15.050941mm"
   viewBox="0 0 13.052945 15.050941"
   version="1.1"
   id="svg5"
   xmlns="http://www.w3.org/2000/svg"
   xmlns:svg="http://www.w3.org/2000/svg">
  <defs
     id="defs2" />
  <g
     id="layer1"
     transform="translate(-70.969527,-32.979657)">
    <g
       aria-label="&quot;"
       id="text531"
       style="font-style:italic;font-weight:500;font-size:50.8px;font-family:'SPD TheSans Versal';-inkscape-font-specification:'SPD TheSans Versal Medium Italic';stroke:#000000;stroke-width:0.264583;stroke-linecap:square">
      <path
         d="m 75.67687,34.356598 1.297134,13.070195 -2.564924,0.452266 -3.27579,-12.721306 z m 6.929365,-1.221834 1.272707,13.074502 -2.540495,0.447958 -3.275792,-12.721305 z"
         style="font-style:normal;font-weight:normal;font-family:'Open Sans';-inkscape-font-specification:'Open Sans';fill:#ffffff;stroke:#ffffff"
         id="path742" />
    </g>
  </g>
</svg>
