<?xml version="1.0" encoding="UTF-8" standalone="no"?>
<!-- Created with Inkscape (http://www.inkscape.org/) -->

<svg
   width="14.023214mm"
   height="16.019171mm"
   viewBox="0 0 14.023214 16.019171"
   version="1.1"
   id="svg5"
   inkscape:export-filename="quote_outline_white.svg"
   inkscape:export-xdpi="96"
   inkscape:export-ydpi="96"
   xmlns:inkscape="http://www.inkscape.org/namespaces/inkscape"
   xmlns:sodipodi="http://sodipodi.sourceforge.net/DTD/sodipodi-0.dtd"
   xmlns="http://www.w3.org/2000/svg"
   xmlns:svg="http://www.w3.org/2000/svg">
  <sodipodi:namedview
     id="namedview7"
     pagecolor="#ffffff"
     bordercolor="#000000"
     borderopacity="0.25"
     inkscape:showpageshadow="2"
     inkscape:pageopacity="0.0"
     inkscape:pagecheckerboard="0"
     inkscape:deskcolor="#d1d1d1"
     inkscape:document-units="mm"
     showgrid="false" />
  <defs
     id="defs2" />
  <g
     inkscape:label="Ebene 1"
     inkscape:groupmode="layer"
     id="layer1"
     transform="translate(-70.452449,-32.48991)">
    <g
       aria-label="&quot;"
       id="text531"
       style="font-style:italic;font-weight:500;font-size:50.8px;font-family:'SPD TheSans Versal';-inkscape-font-specification:'SPD TheSans Versal Medium Italic';stroke:#000000;stroke-width:0.264583;stroke-linecap:square">
      <path
         d="m 75.67687,34.356598 1.297134,13.070195 -2.564924,0.452266 -3.27579,-12.721306 z m 6.929365,-1.221834 1.272707,13.074502 -2.540495,0.447958 -3.275792,-12.721305 z"
         style="font-style:normal;font-weight:normal;font-family:'Open Sans';-inkscape-font-specification:'Open Sans';fill:none;stroke:#ffffff;stroke-width:1.1;stroke-dasharray:none"
         id="path742"
         sodipodi:nodetypes="cccccccccc"
         inkscape:export-filename="quote_outline_black.svg"
         inkscape:export-xdpi="96"
         inkscape:export-ydpi="96" />
    </g>
  </g>
</svg>
